{
"Resources": {
         "graylog-loadbalancer": 
                 {
                 "Type": "AWS::ElasticLoadBalancing::LoadBalancer" ,
                 "Properties":
                        { 
                        "ConnectionSettings" : 
                                 {
                                  "IdleTimeout" : "60"
                                 },
                        "CrossZone" : "True",
                        "HealthCheck" : 
                                 {
                                "HealthyThreshold" : "3",
                                "Interval" : "20",
                                "Target" : "HTTPS:443/api",
                                "Timeout" : "5",
                                "UnhealthyThreshold" : "5" 
                                 },
                        "LoadBalancerName" : "GraylogLoadBalancer",
                        "Listeners" : "[grayloghttplistner, grayloghttpslistner]",
                        "Scheme" : "internal",
                        "SecurityGroups" : "[ Graylog_Security_App_LB ]",
                        "Subnets" : "[ { ref: Subnets} ]"
                         } ,
        "graylog-autoscaler": 
                 { 
                 "Type" : "AWS::AutoScaling::AutoScalingGroup",
                 "Properties" :
                      {
                      "VPCZoneIdentifier" : { "Ref" : "Subnets" }, 
                      "LaunchConfigurationName" : { "Ref" : "GreylogAppServer" },
                      "MinSize" : "3",
                      "MaxSize" : "5",
                      "TargetGroupARNs" : [ { "Ref" : "GraylogLoadBalancer" } ]
                       },
                 "CreationPolicy" : 
                      {
                    "ResourceSignal":
                            {
                             "Timeout" : "PT15M"
                             }
                       },
                 "UpdatePolicy":
                      {
                      "AutoScalingRollingUpdate": 
                         {
                         "MinInstancesInService": "1",
                         "MaxBatchSize": "1",
                         "PauseTime" : "PT15M",
                         "WaitOnResourceSignals": "true",
	                     "SuspendProcesses" : "true",
	                     "MinSuccessfulInstancesPercent" : "50"
                         }
                      }
                 },
        "graylog-launchconfig": 
                 { 
                 "Type": "AWS::AutoScaling::LaunchConfiguration",
	             "Metadata": 
                      {
	                  "Comment": "Graylog App Server Setup",
	                  "AWS::CloudFormation::Init" : 
                            {
                            "config":
                                 {
	                             "commands":
	 	                               {
	 	                               "command1": 
                                            {
	 	                                    "command": "/bin/bash /root/deploygrayapp.sh"
	 	                                    }
	                                   }
	                             }
                            }
                      },
                 "Properties":
                     { 
	                 "AssociatePublicIpAddress" : "False",
                     "EbsOptimized" : "False",
                     "ImageId" : {"ref": "InstanceID"  },
                     "InstanceMonitoring" : "False" ,
                     "InstanceType" : { "ref": "GraylogInstanceType" },
                     "KeyName" : { "ref": "SSHKey"  },
                     "LaunchConfigurationName" : "GraylogAppServer",
                     "SecurityGroups" : [ "Graylog_Security_App" ]
                      }   
                 },
        "graylog-securitygroup": 
                 {
                 
                 },
        "mongo-loadbalancer": 
                 {
                 "Type": "AWS::ElasticLoadBalancing::LoadBalancer" ,
                 "Properties":
                        { 
                        "ConnectionSettings" : 
                                 {
                                  "IdleTimeout" : "60"
                                 },
                        "CrossZone" : "True",
                        "HealthCheck" : 
                                 {
                                "HealthyThreshold" : "3",
                                "Interval" : 20,
                                "Target" : "TCP:27017",
                                "Timeout" : "5",
                                "UnhealthyThreshold" : "5" 
                                 },
                        "LoadBalancerName" : "MongoLoadBalancer",
                        "Listeners" : "[MongoListner]",
                        "Scheme" : "internal",
                        "SecurityGroups" : "[ Graylog_Security_App_LB ]",
                        "Subnets" : "[ { ref: Subnets} ]"
                        }
                 },
        "mongo-autoscaler":  
                 {
 
                 "Type" : "AWS::AutoScaling::AutoScalingGroup",
                 "Properties" :
                      {
                      "VPCZoneIdentifier" : { "Ref" : "Subnets" }, 
                      "LaunchConfigurationName" : { "Ref" : "GreylogMongoServer" },
                      "MinSize" : "3",
                      "MaxSize" : "3",
                      "TargetGroupARNs" : [ { "Ref" : "MongoLoadBalancer" } ]
                       },
                 "CreationPolicy" : 
                      {
                    "ResourceSignal":
                            {
                             "Timeout" : "PT5M"
                             }
                      },
                 "UpdatePolicy":
                      {
                      "AutoScalingRollingUpdate": 
                         {
                         "MinInstancesInService": "1",
                         "MaxBatchSize": "1",
                         "PauseTime" : "PT5M",
                         "WaitOnResourceSignals": "true",
	                     "SuspendProcesses" : "true",
	                     "MinSuccessfulInstancesPercent" : "50"
                         }
                      }
                  },
                 
        "mongo-launchgroup": 
                 { 

                 "Type": "AWS::AutoScaling::LaunchConfiguration",
	             "Metadata": 
                      {
	                  "Comment": "Graylog Mongo Server Setup",
	                  "AWS::CloudFormation::Init" : 
                            {
                            "config":
                                 {
	                             "commands":
	 	                               {
	 	                               "command1": 
                                            {
	 	                                    "command": "/bin/bash /root/deploymongo.sh"
	 	                                    }
	                                   }
	                             }
                            }
                      },
                 "Properties":
                     { 
	                 "AssociatePublicIpAddress" : "False",
                     "EbsOptimized" : "False",
                     "ImageId" : {"ref": "InstanceID"  },
                     "InstanceMonitoring" : "False" ,
                     "InstanceType" : { "ref": "GraylogInstanceType" },
                     "KeyName" : { "ref": "SSHKey"  },
                     "LaunchConfigurationName" : "GraylogAppServer",
                     "SecurityGroups" : [ "Graylog_Security_Mongo"]
                      }   
                 },
        "mongo-secuirtygroup": 
                 { 
                 
                 },
        "elasticsearch": 
                {
                
                }
        }
        }
}

